<?xml version="1.0" encoding="UTF-8" standalone="no"?>
<!DOCTYPE svg PUBLIC "-//W3C//DTD SVG 1.1//EN"
 "http://www.w3.org/Graphics/SVG/1.1/DTD/svg11.dtd">
<!-- Generated by graphviz version 2.40.1 (20161225.0304)
 -->
<!-- Title: dependencies Pages: 1 -->
<svg width="9315pt" height="349pt"
 viewBox="0.00 0.00 9315.00 349.00" xmlns="http://www.w3.org/2000/svg" xmlns:xlink="http://www.w3.org/1999/xlink">
<g id="graph0" class="graph" transform="scale(1 1) rotate(0) translate(4 345)">
<title>dependencies</title>
<polygon fill="#ffffff" stroke="transparent" points="-4,4 -4,-345 9311,-345 9311,4 -4,4"/>
<text text-anchor="start" x="4632.5091" y="-42.4" font-family="sans-serif" font-weight="bold" font-size="14.00" fill="#000000">Legend</text>
<polygon fill="#ffffb3" stroke="transparent" points="4419.5,-10 4419.5,-30 4439.5,-30 4439.5,-10 4419.5,-10"/>
<text text-anchor="start" x="4443.129" y="-15.4" font-family="sans-serif" font-size="14.00" fill="#000000"> &#160;Declarations</text>
<polygon fill="#8dd3c7" stroke="transparent" points="4532.5,-10 4532.5,-30 4552.5,-30 4552.5,-10 4532.5,-10"/>
<text text-anchor="start" x="4556.2251" y="-15.4" font-family="sans-serif" font-size="14.00" fill="#000000"> &#160;Module</text>
<polygon fill="#80b1d3" stroke="transparent" points="4618.5,-10 4618.5,-30 4638.5,-30 4638.5,-10 4618.5,-10"/>
<text text-anchor="start" x="4642.2812" y="-15.4" font-family="sans-serif" font-size="14.00" fill="#000000"> &#160;Bootstrap</text>
<polygon fill="#fdb462" stroke="transparent" points="4715.5,-10 4715.5,-30 4735.5,-30 4735.5,-10 4715.5,-10"/>
<text text-anchor="start" x="4739.1732" y="-15.4" font-family="sans-serif" font-size="14.00" fill="#000000"> &#160;Providers</text>
<polygon fill="#fb8072" stroke="transparent" points="4811.5,-10 4811.5,-30 4831.5,-30 4831.5,-10 4811.5,-10"/>
<text text-anchor="start" x="4835.2258" y="-15.4" font-family="sans-serif" font-size="14.00" fill="#000000"> &#160;Exports</text>
<g id="clust1" class="cluster">
<title>cluster_AppModule</title>
<polygon fill="none" stroke="#000000" stroke-dasharray="1,5" points="8,-70 8,-333 9299,-333 9299,-70 8,-70"/>
</g>
<g id="clust2" class="cluster">
<title>cluster_AppModule_declarations</title>
<polygon fill="none" stroke="#000000" points="320,-143 320,-195 9291,-195 9291,-143 320,-143"/>
</g>
<g id="clust3" class="cluster">
<title>cluster_AppModule_AppComponent_providers</title>
<polygon fill="none" stroke="#000000" points="8909,-78 8909,-130 9291,-130 9291,-78 8909,-78"/>
</g>
<g id="clust61" class="cluster">
<title>cluster_AppModule_bootstrap</title>
<polygon fill="none" stroke="#000000" points="4873,-273 4873,-325 4997,-325 4997,-273 4873,-273"/>
</g>
<g id="clust62" class="cluster">
<title>cluster_AppModule_providers</title>
<polygon fill="none" stroke="#000000" points="16,-143 16,-195 312,-195 312,-143 16,-143"/>
</g>
<!-- AppComponent -->
<g id="node1" class="node">
<title>AppComponent</title>
<polygon fill="#ffffb3" stroke="#000000" points="9282.9399,-187 9177.0601,-187 9177.0601,-151 9282.9399,-151 9282.9399,-187"/>
<text text-anchor="middle" x="9230" y="-164.8" font-family="Times,serif" font-size="14.00" fill="#000000">AppComponent</text>
</g>
<!-- AppModule -->
<g id="node57" class="node">
<title>AppModule</title>
<polygon fill="#8dd3c7" stroke="#000000" points="4976.6571,-252 4973.6571,-256 4952.6571,-256 4949.6571,-252 4893.3429,-252 4893.3429,-216 4976.6571,-216 4976.6571,-252"/>
<text text-anchor="middle" x="4935" y="-229.8" font-family="Times,serif" font-size="14.00" fill="#000000">AppModule</text>
</g>
<!-- AppComponent&#45;&gt;AppModule -->
<g id="edge1" class="edge">
<title>AppComponent&#45;&gt;AppModule</title>
<path fill="none" stroke="#000000" d="M9247.5732,-187.1985C9247.5732,-211.3563 9247.5732,-251 9247.5732,-251 9247.5732,-251 4986.9889,-251 4986.9889,-251"/>
<polygon fill="#000000" stroke="#000000" points="4986.9889,-247.5001 4976.9889,-251 4986.9888,-254.5001 4986.9889,-247.5001"/>
</g>
<!-- AppComponent&#45;&gt;AppModule -->
<g id="edge62" class="edge">
<title>AppComponent&#45;&gt;AppModule</title>
<path fill="none" stroke="#000000" d="M9212.4268,-187.3802C9212.4268,-211.2785 9212.4268,-250 9212.4268,-250 9212.4268,-250 4986.9902,-250 4986.9902,-250"/>
<polygon fill="#000000" stroke="#000000" points="4986.9903,-246.5001 4976.9902,-250 4986.9902,-253.5001 4986.9903,-246.5001"/>
</g>
<!-- RegisterComponent -->
<g id="node2" class="node">
<title>RegisterComponent</title>
<polygon fill="#ffffb3" stroke="#000000" points="9158.9846,-187 9031.0154,-187 9031.0154,-151 9158.9846,-151 9158.9846,-187"/>
<text text-anchor="middle" x="9095" y="-164.8" font-family="Times,serif" font-size="14.00" fill="#000000">RegisterComponent</text>
</g>
<!-- RegisterComponent&#45;&gt;AppModule -->
<g id="edge4" class="edge">
<title>RegisterComponent&#45;&gt;AppModule</title>
<path fill="none" stroke="#000000" d="M9095,-187.1532C9095,-210.7566 9095,-249 9095,-249 9095,-249 4986.8479,-249 4986.8479,-249"/>
<polygon fill="#000000" stroke="#000000" points="4986.8479,-245.5001 4976.8479,-249 4986.8478,-252.5001 4986.8479,-245.5001"/>
</g>
<!-- LoginComponent -->
<g id="node3" class="node">
<title>LoginComponent</title>
<polygon fill="#ffffb3" stroke="#000000" points="9013.2758,-187 8898.7242,-187 8898.7242,-151 9013.2758,-151 9013.2758,-187"/>
<text text-anchor="middle" x="8956" y="-164.8" font-family="Times,serif" font-size="14.00" fill="#000000">LoginComponent</text>
</g>
<!-- LoginComponent&#45;&gt;AppModule -->
<g id="edge5" class="edge">
<title>LoginComponent&#45;&gt;AppModule</title>
<path fill="none" stroke="#000000" d="M8956,-187.3228C8956,-210.6602 8956,-248 8956,-248 8956,-248 4986.7695,-248 4986.7695,-248"/>
<polygon fill="#000000" stroke="#000000" points="4986.7695,-244.5001 4976.7695,-248 4986.7695,-251.5001 4986.7695,-244.5001"/>
</g>
<!-- LogoutComponent -->
<g id="node4" class="node">
<title>LogoutComponent</title>
<polygon fill="#ffffb3" stroke="#000000" points="8880.7758,-187 8759.2242,-187 8759.2242,-151 8880.7758,-151 8880.7758,-187"/>
<text text-anchor="middle" x="8820" y="-164.8" font-family="Times,serif" font-size="14.00" fill="#000000">LogoutComponent</text>
</g>
<!-- LogoutComponent&#45;&gt;AppModule -->
<g id="edge6" class="edge">
<title>LogoutComponent&#45;&gt;AppModule</title>
<path fill="none" stroke="#000000" d="M8820,-187.2479C8820,-210.0179 8820,-246 8820,-246 8820,-246 4986.9783,-246 4986.9783,-246"/>
<polygon fill="#000000" stroke="#000000" points="4986.9784,-242.5001 4976.9783,-246 4986.9783,-249.5001 4986.9784,-242.5001"/>
</g>
<!-- InitiativeComponent -->
<g id="node5" class="node">
<title>InitiativeComponent</title>
<polygon fill="#ffffb3" stroke="#000000" points="8740.8753,-187 8609.1247,-187 8609.1247,-151 8740.8753,-151 8740.8753,-187"/>
<text text-anchor="middle" x="8675" y="-164.8" font-family="Times,serif" font-size="14.00" fill="#000000">InitiativeComponent</text>
</g>
<!-- InitiativeComponent&#45;&gt;AppModule -->
<g id="edge7" class="edge">
<title>InitiativeComponent&#45;&gt;AppModule</title>
<path fill="none" stroke="#000000" d="M8675,-187.0109C8675,-209.4852 8675,-245 8675,-245 8675,-245 4986.6815,-245 4986.6815,-245"/>
<polygon fill="#000000" stroke="#000000" points="4986.6816,-241.5001 4976.6815,-245 4986.6815,-248.5001 4986.6816,-241.5001"/>
</g>
<!-- InfoboxComponent -->
<g id="node6" class="node">
<title>InfoboxComponent</title>
<polygon fill="#ffffb3" stroke="#000000" points="8590.6541,-187 8465.3459,-187 8465.3459,-151 8590.6541,-151 8590.6541,-187"/>
<text text-anchor="middle" x="8528" y="-164.8" font-family="Times,serif" font-size="14.00" fill="#000000">InfoboxComponent</text>
</g>
<!-- InfoboxComponent&#45;&gt;AppModule -->
<g id="edge8" class="edge">
<title>InfoboxComponent&#45;&gt;AppModule</title>
<path fill="none" stroke="#000000" d="M8528,-187.1554C8528,-209.3519 8528,-244 8528,-244 8528,-244 4986.9071,-244 4986.9071,-244"/>
<polygon fill="#000000" stroke="#000000" points="4986.9071,-240.5001 4976.9071,-244 4986.907,-247.5001 4986.9071,-240.5001"/>
</g>
<!-- ProfileComponent -->
<g id="node7" class="node">
<title>ProfileComponent</title>
<polygon fill="#ffffb3" stroke="#000000" points="8446.9328,-187 8327.0672,-187 8327.0672,-151 8446.9328,-151 8446.9328,-187"/>
<text text-anchor="middle" x="8387" y="-164.8" font-family="Times,serif" font-size="14.00" fill="#000000">ProfileComponent</text>
</g>
<!-- ProfileComponent&#45;&gt;AppModule -->
<g id="edge9" class="edge">
<title>ProfileComponent&#45;&gt;AppModule</title>
<path fill="none" stroke="#000000" d="M8387,-187.2921C8387,-209.2057 8387,-243 8387,-243 8387,-243 4986.7844,-243 4986.7844,-243"/>
<polygon fill="#000000" stroke="#000000" points="4986.7844,-239.5001 4976.7844,-243 4986.7843,-246.5001 4986.7844,-239.5001"/>
</g>
<!-- SingleInitiativeComponent -->
<g id="node8" class="node">
<title>SingleInitiativeComponent</title>
<polygon fill="#ffffb3" stroke="#000000" points="8308.654,-187 8141.346,-187 8141.346,-151 8308.654,-151 8308.654,-187"/>
<text text-anchor="middle" x="8225" y="-164.8" font-family="Times,serif" font-size="14.00" fill="#000000">SingleInitiativeComponent</text>
</g>
<!-- SingleInitiativeComponent&#45;&gt;AppModule -->
<g id="edge10" class="edge">
<title>SingleInitiativeComponent&#45;&gt;AppModule</title>
<path fill="none" stroke="#000000" d="M8225,-187.0449C8225,-208.6623 8225,-242 8225,-242 8225,-242 4986.897,-242 4986.897,-242"/>
<polygon fill="#000000" stroke="#000000" points="4986.8971,-238.5001 4976.897,-242 4986.897,-245.5001 4986.8971,-238.5001"/>
</g>
<!-- SupporterComponent -->
<g id="node9" class="node">
<title>SupporterComponent</title>
<polygon fill="#ffffb3" stroke="#000000" points="8123.0422,-187 7986.9578,-187 7986.9578,-151 8123.0422,-151 8123.0422,-187"/>
<text text-anchor="middle" x="8055" y="-164.8" font-family="Times,serif" font-size="14.00" fill="#000000">SupporterComponent</text>
</g>
<!-- SupporterComponent&#45;&gt;AppModule -->
<g id="edge11" class="edge">
<title>SupporterComponent&#45;&gt;AppModule</title>
<path fill="none" stroke="#000000" d="M8055,-187.2843C8055,-208.3211 8055,-240 8055,-240 8055,-240 4986.746,-240 4986.746,-240"/>
<polygon fill="#000000" stroke="#000000" points="4986.746,-236.5001 4976.746,-240 4986.746,-243.5001 4986.746,-236.5001"/>
</g>
<!-- UserMenuComponent -->
<g id="node10" class="node">
<title>UserMenuComponent</title>
<polygon fill="#ffffb3" stroke="#000000" points="7969.4186,-187 7828.5814,-187 7828.5814,-151 7969.4186,-151 7969.4186,-187"/>
<text text-anchor="middle" x="7899" y="-164.8" font-family="Times,serif" font-size="14.00" fill="#000000">UserMenuComponent</text>
</g>
<!-- UserMenuComponent&#45;&gt;AppModule -->
<g id="edge12" class="edge">
<title>UserMenuComponent&#45;&gt;AppModule</title>
<path fill="none" stroke="#000000" d="M7899,-187.0267C7899,-207.7672 7899,-239 7899,-239 7899,-239 4986.9,-239 4986.9,-239"/>
<polygon fill="#000000" stroke="#000000" points="4986.9001,-235.5001 4976.9,-239 4986.9,-242.5001 4986.9001,-235.5001"/>
</g>
<!-- AdminMenuComponent -->
<g id="node11" class="node">
<title>AdminMenuComponent</title>
<polygon fill="#ffffb3" stroke="#000000" points="7810.3794,-187 7657.6206,-187 7657.6206,-151 7810.3794,-151 7810.3794,-187"/>
<text text-anchor="middle" x="7734" y="-164.8" font-family="Times,serif" font-size="14.00" fill="#000000">AdminMenuComponent</text>
</g>
<!-- AdminMenuComponent&#45;&gt;AppModule -->
<g id="edge13" class="edge">
<title>AdminMenuComponent&#45;&gt;AppModule</title>
<path fill="none" stroke="#000000" d="M7734,-187.1289C7734,-207.5724 7734,-238 7734,-238 7734,-238 4986.7392,-238 4986.7392,-238"/>
<polygon fill="#000000" stroke="#000000" points="4986.7392,-234.5001 4976.7392,-238 4986.7391,-241.5001 4986.7392,-234.5001"/>
</g>
<!-- TopMenuComponent -->
<g id="node12" class="node">
<title>TopMenuComponent</title>
<polygon fill="#ffffb3" stroke="#000000" points="7639.045,-187 7502.955,-187 7502.955,-151 7639.045,-151 7639.045,-187"/>
<text text-anchor="middle" x="7571" y="-164.8" font-family="Times,serif" font-size="14.00" fill="#000000">TopMenuComponent</text>
</g>
<!-- TopMenuComponent&#45;&gt;AppModule -->
<g id="edge14" class="edge">
<title>TopMenuComponent&#45;&gt;AppModule</title>
<path fill="none" stroke="#000000" d="M7571,-187.2228C7571,-207.3652 7571,-237 7571,-237 7571,-237 4986.671,-237 4986.671,-237"/>
<polygon fill="#000000" stroke="#000000" points="4986.671,-233.5001 4976.671,-237 4986.6709,-240.5001 4986.671,-233.5001"/>
</g>
<!-- GuestMenuComponent -->
<g id="node13" class="node">
<title>GuestMenuComponent</title>
<polygon fill="#ffffb3" stroke="#000000" points="7484.1484,-187 7337.8516,-187 7337.8516,-151 7484.1484,-151 7484.1484,-187"/>
<text text-anchor="middle" x="7411" y="-164.8" font-family="Times,serif" font-size="14.00" fill="#000000">GuestMenuComponent</text>
</g>
<!-- GuestMenuComponent&#45;&gt;AppModule -->
<g id="edge15" class="edge">
<title>GuestMenuComponent&#45;&gt;AppModule</title>
<path fill="none" stroke="#000000" d="M7411,-187.308C7411,-207.1455 7411,-236 7411,-236 7411,-236 4986.6789,-236 4986.6789,-236"/>
<polygon fill="#000000" stroke="#000000" points="4986.6789,-232.5001 4976.6789,-236 4986.6788,-239.5001 4986.6789,-232.5001"/>
</g>
<!-- LandingPageComponent -->
<g id="node14" class="node">
<title>LandingPageComponent</title>
<polygon fill="#ffffb3" stroke="#000000" points="7319.7021,-187 7164.2979,-187 7164.2979,-151 7319.7021,-151 7319.7021,-187"/>
<text text-anchor="middle" x="7242" y="-164.8" font-family="Times,serif" font-size="14.00" fill="#000000">LandingPageComponent</text>
</g>
<!-- LandingPageComponent&#45;&gt;AppModule -->
<g id="edge16" class="edge">
<title>LandingPageComponent&#45;&gt;AppModule</title>
<path fill="none" stroke="#000000" d="M7242,-187.1061C7242,-206.3391 7242,-234 7242,-234 7242,-234 4987.0117,-234 4987.0117,-234"/>
<polygon fill="#000000" stroke="#000000" points="4987.0117,-230.5001 4977.0117,-234 4987.0116,-237.5001 4987.0117,-230.5001"/>
</g>
<!-- VisionComponent -->
<g id="node15" class="node">
<title>VisionComponent</title>
<polygon fill="#ffffb3" stroke="#000000" points="7146.1653,-187 7027.8347,-187 7027.8347,-151 7146.1653,-151 7146.1653,-187"/>
<text text-anchor="middle" x="7087" y="-164.8" font-family="Times,serif" font-size="14.00" fill="#000000">VisionComponent</text>
</g>
<!-- VisionComponent&#45;&gt;AppModule -->
<g id="edge17" class="edge">
<title>VisionComponent&#45;&gt;AppModule</title>
<path fill="none" stroke="#000000" d="M7087,-187.1686C7087,-206.0898 7087,-233 7087,-233 7087,-233 4987.0221,-233 4987.0221,-233"/>
<polygon fill="#000000" stroke="#000000" points="4987.0221,-229.5001 4977.0221,-233 4987.0221,-236.5001 4987.0221,-229.5001"/>
</g>
<!-- ExplanationComponent -->
<g id="node16" class="node">
<title>ExplanationComponent</title>
<polygon fill="#ffffb3" stroke="#000000" points="7009.486,-187 6860.514,-187 6860.514,-151 7009.486,-151 7009.486,-187"/>
<text text-anchor="middle" x="6935" y="-164.8" font-family="Times,serif" font-size="14.00" fill="#000000">ExplanationComponent</text>
</g>
<!-- ExplanationComponent&#45;&gt;AppModule -->
<g id="edge18" class="edge">
<title>ExplanationComponent&#45;&gt;AppModule</title>
<path fill="none" stroke="#000000" d="M6935,-187.2222C6935,-205.8285 6935,-232 6935,-232 6935,-232 4986.7728,-232 4986.7728,-232"/>
<polygon fill="#000000" stroke="#000000" points="4986.7729,-228.5001 4976.7728,-232 4986.7728,-235.5001 4986.7729,-228.5001"/>
</g>
<!-- ParticipationComponent -->
<g id="node17" class="node">
<title>ParticipationComponent</title>
<polygon fill="#ffffb3" stroke="#000000" points="6842.3725,-187 6689.6275,-187 6689.6275,-151 6842.3725,-151 6842.3725,-187"/>
<text text-anchor="middle" x="6766" y="-164.8" font-family="Times,serif" font-size="14.00" fill="#000000">ParticipationComponent</text>
</g>
<!-- ParticipationComponent&#45;&gt;AppModule -->
<g id="edge19" class="edge">
<title>ParticipationComponent&#45;&gt;AppModule</title>
<path fill="none" stroke="#000000" d="M6766,-187.2667C6766,-205.5552 6766,-231 6766,-231 6766,-231 4986.6832,-231 4986.6832,-231"/>
<polygon fill="#000000" stroke="#000000" points="4986.6833,-227.5001 4976.6832,-231 4986.6832,-234.5001 4986.6833,-227.5001"/>
</g>
<!-- FeaturedComponent -->
<g id="node18" class="node">
<title>FeaturedComponent</title>
<polygon fill="#ffffb3" stroke="#000000" points="6671.3104,-187 6540.6896,-187 6540.6896,-151 6671.3104,-151 6671.3104,-187"/>
<text text-anchor="middle" x="6606" y="-164.8" font-family="Times,serif" font-size="14.00" fill="#000000">FeaturedComponent</text>
</g>
<!-- FeaturedComponent&#45;&gt;AppModule -->
<g id="edge20" class="edge">
<title>FeaturedComponent&#45;&gt;AppModule</title>
<path fill="none" stroke="#000000" d="M6606,-187.302C6606,-205.2699 6606,-230 6606,-230 6606,-230 4986.7227,-230 4986.7227,-230"/>
<polygon fill="#000000" stroke="#000000" points="4986.7228,-226.5001 4976.7227,-230 4986.7227,-233.5001 4986.7228,-226.5001"/>
</g>
<!-- FooterComponent -->
<g id="node19" class="node">
<title>FooterComponent</title>
<polygon fill="#ffffb3" stroke="#000000" points="6522.8809,-187 6405.1191,-187 6405.1191,-151 6522.8809,-151 6522.8809,-187"/>
<text text-anchor="middle" x="6464" y="-164.8" font-family="Times,serif" font-size="14.00" fill="#000000">FooterComponent</text>
</g>
<!-- FooterComponent&#45;&gt;AppModule -->
<g id="edge21" class="edge">
<title>FooterComponent&#45;&gt;AppModule</title>
<path fill="none" stroke="#000000" d="M6464,-187.0225C6464,-204.3734 6464,-228 6464,-228 6464,-228 4986.69,-228 4986.69,-228"/>
<polygon fill="#000000" stroke="#000000" points="4986.6901,-224.5001 4976.69,-228 4986.69,-231.5001 4986.6901,-224.5001"/>
</g>
<!-- BaseSixtyFourInputComponent -->
<g id="node20" class="node">
<title>BaseSixtyFourInputComponent</title>
<polygon fill="#ffffb3" stroke="#000000" points="6387.101,-187 6192.899,-187 6192.899,-151 6387.101,-151 6387.101,-187"/>
<text text-anchor="middle" x="6290" y="-164.8" font-family="Times,serif" font-size="14.00" fill="#000000">BaseSixtyFourInputComponent</text>
</g>
<!-- BaseSixtyFourInputComponent&#45;&gt;AppModule -->
<g id="edge22" class="edge">
<title>BaseSixtyFourInputComponent&#45;&gt;AppModule</title>
<path fill="none" stroke="#000000" d="M6290,-187.0336C6290,-204.0597 6290,-227 6290,-227 6290,-227 4986.6645,-227 4986.6645,-227"/>
<polygon fill="#000000" stroke="#000000" points="4986.6646,-223.5001 4976.6645,-227 4986.6645,-230.5001 4986.6646,-223.5001"/>
</g>
<!-- BtnHomeComponent -->
<g id="node21" class="node">
<title>BtnHomeComponent</title>
<polygon fill="#ffffb3" stroke="#000000" points="6174.7716,-187 6039.2284,-187 6039.2284,-151 6174.7716,-151 6174.7716,-187"/>
<text text-anchor="middle" x="6107" y="-164.8" font-family="Times,serif" font-size="14.00" fill="#000000">BtnHomeComponent</text>
</g>
<!-- BtnHomeComponent&#45;&gt;AppModule -->
<g id="edge23" class="edge">
<title>BtnHomeComponent&#45;&gt;AppModule</title>
<path fill="none" stroke="#000000" d="M6107,-187.0352C6107,-203.7344 6107,-226 6107,-226 6107,-226 4986.7121,-226 4986.7121,-226"/>
<polygon fill="#000000" stroke="#000000" points="4986.7121,-222.5001 4976.7121,-226 4986.7121,-229.5001 4986.7121,-222.5001"/>
</g>
<!-- MyInitiativesComponent -->
<g id="node22" class="node">
<title>MyInitiativesComponent</title>
<polygon fill="#ffffb3" stroke="#000000" points="6021.2646,-187 5864.7354,-187 5864.7354,-151 6021.2646,-151 6021.2646,-187"/>
<text text-anchor="middle" x="5943" y="-164.8" font-family="Times,serif" font-size="14.00" fill="#000000">MyInitiativesComponent</text>
</g>
<!-- MyInitiativesComponent&#45;&gt;AppModule -->
<g id="edge24" class="edge">
<title>MyInitiativesComponent&#45;&gt;AppModule</title>
<path fill="none" stroke="#000000" d="M5943,-187.027C5943,-203.3976 5943,-225 5943,-225 5943,-225 4986.7111,-225 4986.7111,-225"/>
<polygon fill="#000000" stroke="#000000" points="4986.7111,-221.5001 4976.7111,-225 4986.711,-228.5001 4986.7111,-221.5001"/>
</g>
<!-- CreateComponent -->
<g id="node23" class="node">
<title>CreateComponent</title>
<polygon fill="#ffffb3" stroke="#000000" points="5846.8641,-187 5729.1359,-187 5729.1359,-151 5846.8641,-151 5846.8641,-187"/>
<text text-anchor="middle" x="5788" y="-164.8" font-family="Times,serif" font-size="14.00" fill="#000000">CreateComponent</text>
</g>
<!-- CreateComponent&#45;&gt;AppModule -->
<g id="edge25" class="edge">
<title>CreateComponent&#45;&gt;AppModule</title>
<path fill="none" stroke="#000000" d="M5788,-187.0091C5788,-203.0494 5788,-224 5788,-224 5788,-224 4986.7194,-224 4986.7194,-224"/>
<polygon fill="#000000" stroke="#000000" points="4986.7194,-220.5001 4976.7194,-224 4986.7194,-227.5001 4986.7194,-220.5001"/>
</g>
<!-- ShowComponent -->
<g id="node24" class="node">
<title>ShowComponent</title>
<polygon fill="#ffffb3" stroke="#000000" points="5710.7218,-187 5597.2782,-187 5597.2782,-151 5710.7218,-151 5710.7218,-187"/>
<text text-anchor="middle" x="5654" y="-164.8" font-family="Times,serif" font-size="14.00" fill="#000000">ShowComponent</text>
</g>
<!-- ShowComponent&#45;&gt;AppModule -->
<g id="edge26" class="edge">
<title>ShowComponent&#45;&gt;AppModule</title>
<path fill="none" stroke="#000000" d="M5654,-187.2396C5654,-202.5706 5654,-222 5654,-222 5654,-222 4986.7643,-222 4986.7643,-222"/>
<polygon fill="#000000" stroke="#000000" points="4986.7643,-218.5001 4976.7643,-222 4986.7642,-225.5001 4986.7643,-218.5001"/>
</g>
<!-- SidebarComponent -->
<g id="node25" class="node">
<title>SidebarComponent</title>
<polygon fill="#ffffb3" stroke="#000000" points="5579.0954,-187 5454.9046,-187 5454.9046,-151 5579.0954,-151 5579.0954,-187"/>
<text text-anchor="middle" x="5517" y="-164.8" font-family="Times,serif" font-size="14.00" fill="#000000">SidebarComponent</text>
</g>
<!-- SidebarComponent&#45;&gt;AppModule -->
<g id="edge27" class="edge">
<title>SidebarComponent&#45;&gt;AppModule</title>
<path fill="none" stroke="#000000" d="M5517,-187.1871C5517,-202.1824 5517,-221 5517,-221 5517,-221 4986.856,-221 4986.856,-221"/>
<polygon fill="#000000" stroke="#000000" points="4986.856,-217.5001 4976.856,-221 4986.856,-224.5001 4986.856,-217.5001"/>
</g>
<!-- HeadingComponent -->
<g id="node26" class="node">
<title>HeadingComponent</title>
<polygon fill="#ffffb3" stroke="#000000" points="5437.259,-187 5308.741,-187 5308.741,-151 5437.259,-151 5437.259,-187"/>
<text text-anchor="middle" x="5373" y="-164.8" font-family="Times,serif" font-size="14.00" fill="#000000">HeadingComponent</text>
</g>
<!-- HeadingComponent&#45;&gt;AppModule -->
<g id="edge28" class="edge">
<title>HeadingComponent&#45;&gt;AppModule</title>
<path fill="none" stroke="#000000" d="M5373,-187.1243C5373,-201.7832 5373,-220 5373,-220 5373,-220 4986.9973,-220 4986.9973,-220"/>
<polygon fill="#000000" stroke="#000000" points="4986.9973,-216.5001 4976.9973,-220 4986.9972,-223.5001 4986.9973,-216.5001"/>
</g>
<!-- GalleryComponent -->
<g id="node27" class="node">
<title>GalleryComponent</title>
<polygon fill="#ffffb3" stroke="#000000" points="5290.8104,-187 5167.1896,-187 5167.1896,-151 5290.8104,-151 5290.8104,-187"/>
<text text-anchor="middle" x="5229" y="-164.8" font-family="Times,serif" font-size="14.00" fill="#000000">GalleryComponent</text>
</g>
<!-- GalleryComponent&#45;&gt;AppModule -->
<g id="edge29" class="edge">
<title>GalleryComponent&#45;&gt;AppModule</title>
<path fill="none" stroke="#000000" d="M5229,-187.0511C5229,-201.373 5229,-219 5229,-219 5229,-219 4986.8108,-219 4986.8108,-219"/>
<polygon fill="#000000" stroke="#000000" points="4986.8108,-215.5001 4976.8108,-219 4986.8108,-222.5001 4986.8108,-215.5001"/>
</g>
<!-- CommentsComponent -->
<g id="node28" class="node">
<title>CommentsComponent</title>
<polygon fill="#ffffb3" stroke="#000000" points="5149,-187 5007,-187 5007,-151 5149,-151 5149,-187"/>
<text text-anchor="middle" x="5078" y="-164.8" font-family="Times,serif" font-size="14.00" fill="#000000">CommentsComponent</text>
</g>
<!-- CommentsComponent&#45;&gt;AppModule -->
<g id="edge30" class="edge">
<title>CommentsComponent&#45;&gt;AppModule</title>
<path fill="none" stroke="#000000" d="M5078,-187.2458C5078,-201.1772 5078,-218 5078,-218 5078,-218 4986.7459,-218 4986.7459,-218"/>
<polygon fill="#000000" stroke="#000000" points="4986.746,-214.5001 4976.7459,-218 4986.7459,-221.5001 4986.746,-214.5001"/>
</g>
<!-- TagsComponent -->
<g id="node29" class="node">
<title>TagsComponent</title>
<polygon fill="#ffffb3" stroke="#000000" points="4989.0452,-187 4880.9548,-187 4880.9548,-151 4989.0452,-151 4989.0452,-187"/>
<text text-anchor="middle" x="4935" y="-164.8" font-family="Times,serif" font-size="14.00" fill="#000000">TagsComponent</text>
</g>
<!-- TagsComponent&#45;&gt;AppModule -->
<g id="edge31" class="edge">
<title>TagsComponent&#45;&gt;AppModule</title>
<path fill="none" stroke="#000000" d="M4935,-187.1061C4935,-187.1061 4935,-205.991 4935,-205.991"/>
<polygon fill="#000000" stroke="#000000" points="4931.5001,-205.9909 4935,-215.991 4938.5001,-205.991 4931.5001,-205.9909"/>
</g>
<!-- CommentComponent -->
<g id="node30" class="node">
<title>CommentComponent</title>
<polygon fill="#ffffb3" stroke="#000000" points="4862.0561,-187 4725.9439,-187 4725.9439,-151 4862.0561,-151 4862.0561,-187"/>
<text text-anchor="middle" x="4794" y="-164.8" font-family="Times,serif" font-size="14.00" fill="#000000">CommentComponent</text>
</g>
<!-- CommentComponent&#45;&gt;AppModule -->
<g id="edge32" class="edge">
<title>CommentComponent&#45;&gt;AppModule</title>
<path fill="none" stroke="#000000" d="M4794,-187.2458C4794,-201.1772 4794,-218 4794,-218 4794,-218 4883.0771,-218 4883.0771,-218"/>
<polygon fill="#000000" stroke="#000000" points="4883.0771,-221.5001 4893.0771,-218 4883.0771,-214.5001 4883.0771,-221.5001"/>
</g>
<!-- GeroComponent -->
<g id="node31" class="node">
<title>GeroComponent</title>
<polygon fill="#ffffb3" stroke="#000000" points="4707.8147,-187 4598.1853,-187 4598.1853,-151 4707.8147,-151 4707.8147,-187"/>
<text text-anchor="middle" x="4653" y="-164.8" font-family="Times,serif" font-size="14.00" fill="#000000">GeroComponent</text>
</g>
<!-- GeroComponent&#45;&gt;AppModule -->
<g id="edge33" class="edge">
<title>GeroComponent&#45;&gt;AppModule</title>
<path fill="none" stroke="#000000" d="M4653,-187.0511C4653,-201.373 4653,-219 4653,-219 4653,-219 4883.0863,-219 4883.0863,-219"/>
<polygon fill="#000000" stroke="#000000" points="4883.0863,-222.5001 4893.0863,-219 4883.0862,-215.5001 4883.0863,-222.5001"/>
</g>
<!-- QuotesComponent -->
<g id="node32" class="node">
<title>QuotesComponent</title>
<polygon fill="#ffffb3" stroke="#000000" points="4580.4888,-187 4459.5112,-187 4459.5112,-151 4580.4888,-151 4580.4888,-187"/>
<text text-anchor="middle" x="4520" y="-164.8" font-family="Times,serif" font-size="14.00" fill="#000000">QuotesComponent</text>
</g>
<!-- QuotesComponent&#45;&gt;AppModule -->
<g id="edge34" class="edge">
<title>QuotesComponent&#45;&gt;AppModule</title>
<path fill="none" stroke="#000000" d="M4520,-187.1243C4520,-201.7832 4520,-220 4520,-220 4520,-220 4883.3081,-220 4883.3081,-220"/>
<polygon fill="#000000" stroke="#000000" points="4883.3081,-223.5001 4893.3081,-220 4883.3081,-216.5001 4883.3081,-223.5001"/>
</g>
<!-- FeaturedInitiativeComponent -->
<g id="node33" class="node">
<title>FeaturedInitiativeComponent</title>
<polygon fill="#ffffb3" stroke="#000000" points="4441.3529,-187 4260.6471,-187 4260.6471,-151 4441.3529,-151 4441.3529,-187"/>
<text text-anchor="middle" x="4351" y="-164.8" font-family="Times,serif" font-size="14.00" fill="#000000">FeaturedInitiativeComponent</text>
</g>
<!-- FeaturedInitiativeComponent&#45;&gt;AppModule -->
<g id="edge35" class="edge">
<title>FeaturedInitiativeComponent&#45;&gt;AppModule</title>
<path fill="none" stroke="#000000" d="M4351,-187.1871C4351,-202.1824 4351,-221 4351,-221 4351,-221 4883.0002,-221 4883.0002,-221"/>
<polygon fill="#000000" stroke="#000000" points="4883.0002,-224.5001 4893.0002,-221 4883.0001,-217.5001 4883.0002,-224.5001"/>
</g>
<!-- IforgotComponent -->
<g id="node34" class="node">
<title>IforgotComponent</title>
<polygon fill="#ffffb3" stroke="#000000" points="4242.205,-187 4121.795,-187 4121.795,-151 4242.205,-151 4242.205,-187"/>
<text text-anchor="middle" x="4182" y="-164.8" font-family="Times,serif" font-size="14.00" fill="#000000">IforgotComponent</text>
</g>
<!-- IforgotComponent&#45;&gt;AppModule -->
<g id="edge36" class="edge">
<title>IforgotComponent&#45;&gt;AppModule</title>
<path fill="none" stroke="#000000" d="M4182,-187.2396C4182,-202.5706 4182,-222 4182,-222 4182,-222 4883.1728,-222 4883.1728,-222"/>
<polygon fill="#000000" stroke="#000000" points="4883.1728,-225.5001 4893.1728,-222 4883.1728,-218.5001 4883.1728,-225.5001"/>
</g>
<!-- FiltersComponent -->
<g id="node35" class="node">
<title>FiltersComponent</title>
<polygon fill="#ffffb3" stroke="#000000" points="4103.6066,-187 3986.3934,-187 3986.3934,-151 4103.6066,-151 4103.6066,-187"/>
<text text-anchor="middle" x="4045" y="-164.8" font-family="Times,serif" font-size="14.00" fill="#000000">FiltersComponent</text>
</g>
<!-- FiltersComponent&#45;&gt;AppModule -->
<g id="edge37" class="edge">
<title>FiltersComponent&#45;&gt;AppModule</title>
<path fill="none" stroke="#000000" d="M4045,-187.0091C4045,-203.0494 4045,-224 4045,-224 4045,-224 4883.2672,-224 4883.2672,-224"/>
<polygon fill="#000000" stroke="#000000" points="4883.2672,-227.5001 4893.2672,-224 4883.2671,-220.5001 4883.2672,-227.5001"/>
</g>
<!-- AdminInitiativenComponent -->
<g id="node36" class="node">
<title>AdminInitiativenComponent</title>
<polygon fill="#ffffb3" stroke="#000000" points="3968.7632,-187 3791.2368,-187 3791.2368,-151 3968.7632,-151 3968.7632,-187"/>
<text text-anchor="middle" x="3880" y="-164.8" font-family="Times,serif" font-size="14.00" fill="#000000">AdminInitiativenComponent</text>
</g>
<!-- AdminInitiativenComponent&#45;&gt;AppModule -->
<g id="edge38" class="edge">
<title>AdminInitiativenComponent&#45;&gt;AppModule</title>
<path fill="none" stroke="#000000" d="M3880,-187.027C3880,-203.3976 3880,-225 3880,-225 3880,-225 4883.3178,-225 4883.3178,-225"/>
<polygon fill="#000000" stroke="#000000" points="4883.3178,-228.5001 4893.3178,-225 4883.3178,-221.5001 4883.3178,-228.5001"/>
</g>
<!-- HandlungsfelderComponent -->
<g id="node37" class="node">
<title>HandlungsfelderComponent</title>
<polygon fill="#ffffb3" stroke="#000000" points="3773.1302,-187 3598.8698,-187 3598.8698,-151 3773.1302,-151 3773.1302,-187"/>
<text text-anchor="middle" x="3686" y="-164.8" font-family="Times,serif" font-size="14.00" fill="#000000">HandlungsfelderComponent</text>
</g>
<!-- HandlungsfelderComponent&#45;&gt;AppModule -->
<g id="edge39" class="edge">
<title>HandlungsfelderComponent&#45;&gt;AppModule</title>
<path fill="none" stroke="#000000" d="M3686,-187.0352C3686,-203.7344 3686,-226 3686,-226 3686,-226 4883.0864,-226 4883.0864,-226"/>
<polygon fill="#000000" stroke="#000000" points="4883.0864,-229.5001 4893.0864,-226 4883.0864,-222.5001 4883.0864,-229.5001"/>
</g>
<!-- HandlungsfeldComponent -->
<g id="node38" class="node">
<title>HandlungsfeldComponent</title>
<polygon fill="#ffffb3" stroke="#000000" points="3580.7548,-187 3417.2452,-187 3417.2452,-151 3580.7548,-151 3580.7548,-187"/>
<text text-anchor="middle" x="3499" y="-164.8" font-family="Times,serif" font-size="14.00" fill="#000000">HandlungsfeldComponent</text>
</g>
<!-- HandlungsfeldComponent&#45;&gt;AppModule -->
<g id="edge40" class="edge">
<title>HandlungsfeldComponent&#45;&gt;AppModule</title>
<path fill="none" stroke="#000000" d="M3499,-187.0336C3499,-204.0597 3499,-227 3499,-227 3499,-227 4883.1873,-227 4883.1873,-227"/>
<polygon fill="#000000" stroke="#000000" points="4883.1873,-230.5001 4893.1873,-227 4883.1872,-223.5001 4883.1873,-230.5001"/>
</g>
<!-- OrtsgemeindenComponent -->
<g id="node39" class="node">
<title>OrtsgemeindenComponent</title>
<polygon fill="#ffffb3" stroke="#000000" points="3399.3599,-187 3232.6401,-187 3232.6401,-151 3399.3599,-151 3399.3599,-187"/>
<text text-anchor="middle" x="3316" y="-164.8" font-family="Times,serif" font-size="14.00" fill="#000000">OrtsgemeindenComponent</text>
</g>
<!-- OrtsgemeindenComponent&#45;&gt;AppModule -->
<g id="edge41" class="edge">
<title>OrtsgemeindenComponent&#45;&gt;AppModule</title>
<path fill="none" stroke="#000000" d="M3316,-187.0225C3316,-204.3734 3316,-228 3316,-228 3316,-228 4882.9412,-228 4882.9412,-228"/>
<polygon fill="#000000" stroke="#000000" points="4882.9412,-231.5001 4892.9412,-228 4882.9411,-224.5001 4882.9412,-231.5001"/>
</g>
<!-- OrtsgemeindeComponent -->
<g id="node40" class="node">
<title>OrtsgemeindeComponent</title>
<polygon fill="#ffffb3" stroke="#000000" points="3214.8599,-187 3055.1401,-187 3055.1401,-151 3214.8599,-151 3214.8599,-187"/>
<text text-anchor="middle" x="3135" y="-164.8" font-family="Times,serif" font-size="14.00" fill="#000000">OrtsgemeindeComponent</text>
</g>
<!-- OrtsgemeindeComponent&#45;&gt;AppModule -->
<g id="edge42" class="edge">
<title>OrtsgemeindeComponent&#45;&gt;AppModule</title>
<path fill="none" stroke="#000000" d="M3135,-187.302C3135,-205.2699 3135,-230 3135,-230 3135,-230 4883.1558,-230 4883.1558,-230"/>
<polygon fill="#000000" stroke="#000000" points="4883.1559,-233.5001 4893.1558,-230 4883.1558,-226.5001 4883.1559,-233.5001"/>
</g>
<!-- NotificationSettingsComponent -->
<g id="node41" class="node">
<title>NotificationSettingsComponent</title>
<polygon fill="#ffffb3" stroke="#000000" points="3037.0954,-187 2842.9046,-187 2842.9046,-151 3037.0954,-151 3037.0954,-187"/>
<text text-anchor="middle" x="2940" y="-164.8" font-family="Times,serif" font-size="14.00" fill="#000000">NotificationSettingsComponent</text>
</g>
<!-- NotificationSettingsComponent&#45;&gt;AppModule -->
<g id="edge43" class="edge">
<title>NotificationSettingsComponent&#45;&gt;AppModule</title>
<path fill="none" stroke="#000000" d="M2940,-187.2667C2940,-205.5552 2940,-231 2940,-231 2940,-231 4883.3316,-231 4883.3316,-231"/>
<polygon fill="#000000" stroke="#000000" points="4883.3316,-234.5001 4893.3316,-231 4883.3316,-227.5001 4883.3316,-234.5001"/>
</g>
<!-- ImpressumComponent -->
<g id="node42" class="node">
<title>ImpressumComponent</title>
<polygon fill="#ffffb3" stroke="#000000" points="2824.5393,-187 2681.4607,-187 2681.4607,-151 2824.5393,-151 2824.5393,-187"/>
<text text-anchor="middle" x="2753" y="-164.8" font-family="Times,serif" font-size="14.00" fill="#000000">ImpressumComponent</text>
</g>
<!-- ImpressumComponent&#45;&gt;AppModule -->
<g id="edge44" class="edge">
<title>ImpressumComponent&#45;&gt;AppModule</title>
<path fill="none" stroke="#000000" d="M2753,-187.2222C2753,-205.8285 2753,-232 2753,-232 2753,-232 4882.8774,-232 4882.8774,-232"/>
<polygon fill="#000000" stroke="#000000" points="4882.8774,-235.5001 4892.8774,-232 4882.8773,-228.5001 4882.8774,-235.5001"/>
</g>
<!-- DatenschutzComponent -->
<g id="node43" class="node">
<title>DatenschutzComponent</title>
<polygon fill="#ffffb3" stroke="#000000" points="2663.024,-187 2512.976,-187 2512.976,-151 2663.024,-151 2663.024,-187"/>
<text text-anchor="middle" x="2588" y="-164.8" font-family="Times,serif" font-size="14.00" fill="#000000">DatenschutzComponent</text>
</g>
<!-- DatenschutzComponent&#45;&gt;AppModule -->
<g id="edge45" class="edge">
<title>DatenschutzComponent&#45;&gt;AppModule</title>
<path fill="none" stroke="#000000" d="M2588,-187.1686C2588,-206.0898 2588,-233 2588,-233 2588,-233 4883.2673,-233 4883.2673,-233"/>
<polygon fill="#000000" stroke="#000000" points="4883.2674,-236.5001 4893.2673,-233 4883.2673,-229.5001 4883.2674,-236.5001"/>
</g>
<!-- EditComponent -->
<g id="node44" class="node">
<title>EditComponent</title>
<polygon fill="#ffffb3" stroke="#000000" points="2494.1667,-187 2389.8333,-187 2389.8333,-151 2494.1667,-151 2494.1667,-187"/>
<text text-anchor="middle" x="2442" y="-164.8" font-family="Times,serif" font-size="14.00" fill="#000000">EditComponent</text>
</g>
<!-- EditComponent&#45;&gt;AppModule -->
<g id="edge46" class="edge">
<title>EditComponent&#45;&gt;AppModule</title>
<path fill="none" stroke="#000000" d="M2442,-187.1061C2442,-206.3391 2442,-234 2442,-234 2442,-234 4883.2938,-234 4883.2938,-234"/>
<polygon fill="#000000" stroke="#000000" points="4883.2939,-237.5001 4893.2938,-234 4883.2938,-230.5001 4883.2939,-237.5001"/>
</g>
<!-- AdminUserComponent -->
<g id="node45" class="node">
<title>AdminUserComponent</title>
<polygon fill="#ffffb3" stroke="#000000" points="2371.147,-187 2224.853,-187 2224.853,-151 2371.147,-151 2371.147,-187"/>
<text text-anchor="middle" x="2298" y="-164.8" font-family="Times,serif" font-size="14.00" fill="#000000">AdminUserComponent</text>
</g>
<!-- AdminUserComponent&#45;&gt;AppModule -->
<g id="edge47" class="edge">
<title>AdminUserComponent&#45;&gt;AppModule</title>
<path fill="none" stroke="#000000" d="M2298,-187.308C2298,-207.1455 2298,-236 2298,-236 2298,-236 4883.3132,-236 4883.3132,-236"/>
<polygon fill="#000000" stroke="#000000" points="4883.3132,-239.5001 4893.3132,-236 4883.3132,-232.5001 4883.3132,-239.5001"/>
</g>
<!-- UserCardComponent -->
<g id="node46" class="node">
<title>UserCardComponent</title>
<polygon fill="#ffffb3" stroke="#000000" points="2206.4706,-187 2071.5294,-187 2071.5294,-151 2206.4706,-151 2206.4706,-187"/>
<text text-anchor="middle" x="2139" y="-164.8" font-family="Times,serif" font-size="14.00" fill="#000000">UserCardComponent</text>
</g>
<!-- UserCardComponent&#45;&gt;AppModule -->
<g id="edge48" class="edge">
<title>UserCardComponent&#45;&gt;AppModule</title>
<path fill="none" stroke="#000000" d="M2139,-187.2228C2139,-207.3652 2139,-237 2139,-237 2139,-237 4883.3056,-237 4883.3056,-237"/>
<polygon fill="#000000" stroke="#000000" points="4883.3056,-240.5001 4893.3056,-237 4883.3055,-233.5001 4883.3056,-240.5001"/>
</g>
<!-- ReportedUsersComponent -->
<g id="node47" class="node">
<title>ReportedUsersComponent</title>
<polygon fill="#ffffb3" stroke="#000000" points="2053.0211,-187 1888.9789,-187 1888.9789,-151 2053.0211,-151 2053.0211,-187"/>
<text text-anchor="middle" x="1971" y="-164.8" font-family="Times,serif" font-size="14.00" fill="#000000">ReportedUsersComponent</text>
</g>
<!-- ReportedUsersComponent&#45;&gt;AppModule -->
<g id="edge49" class="edge">
<title>ReportedUsersComponent&#45;&gt;AppModule</title>
<path fill="none" stroke="#000000" d="M1971,-187.1289C1971,-207.5724 1971,-238 1971,-238 1971,-238 4883.1,-238 4883.1,-238"/>
<polygon fill="#000000" stroke="#000000" points="4883.1,-241.5001 4893.1,-238 4883.0999,-234.5001 4883.1,-241.5001"/>
</g>
<!-- ReportedUserComponent -->
<g id="node48" class="node">
<title>ReportedUserComponent</title>
<polygon fill="#ffffb3" stroke="#000000" points="1870.5758,-187 1711.4242,-187 1711.4242,-151 1870.5758,-151 1870.5758,-187"/>
<text text-anchor="middle" x="1791" y="-164.8" font-family="Times,serif" font-size="14.00" fill="#000000">ReportedUserComponent</text>
</g>
<!-- ReportedUserComponent&#45;&gt;AppModule -->
<g id="edge50" class="edge">
<title>ReportedUserComponent&#45;&gt;AppModule</title>
<path fill="none" stroke="#000000" d="M1791,-187.0267C1791,-207.7672 1791,-239 1791,-239 1791,-239 4883.2257,-239 4883.2257,-239"/>
<polygon fill="#000000" stroke="#000000" points="4883.2257,-242.5001 4893.2257,-239 4883.2257,-235.5001 4883.2257,-242.5001"/>
</g>
<!-- MultiSelectComponent -->
<g id="node49" class="node">
<title>MultiSelectComponent</title>
<polygon fill="#ffffb3" stroke="#000000" points="1693.1568,-187 1546.8432,-187 1546.8432,-151 1693.1568,-151 1693.1568,-187"/>
<text text-anchor="middle" x="1620" y="-164.8" font-family="Times,serif" font-size="14.00" fill="#000000">MultiSelectComponent</text>
</g>
<!-- MultiSelectComponent&#45;&gt;AppModule -->
<g id="edge51" class="edge">
<title>MultiSelectComponent&#45;&gt;AppModule</title>
<path fill="none" stroke="#000000" d="M1620,-187.2843C1620,-208.3211 1620,-240 1620,-240 1620,-240 4883.0862,-240 4883.0862,-240"/>
<polygon fill="#000000" stroke="#000000" points="4883.0862,-243.5001 4893.0862,-240 4883.0861,-236.5001 4883.0862,-243.5001"/>
</g>
<!-- CropperComponent -->
<g id="node50" class="node">
<title>CropperComponent</title>
<polygon fill="#ffffb3" stroke="#000000" points="1528.705,-187 1401.295,-187 1401.295,-151 1528.705,-151 1528.705,-187"/>
<text text-anchor="middle" x="1465" y="-164.8" font-family="Times,serif" font-size="14.00" fill="#000000">CropperComponent</text>
</g>
<!-- CropperComponent&#45;&gt;AppModule -->
<g id="edge52" class="edge">
<title>CropperComponent&#45;&gt;AppModule</title>
<path fill="none" stroke="#000000" d="M1465,-187.0449C1465,-208.6623 1465,-242 1465,-242 1465,-242 4883.3059,-242 4883.3059,-242"/>
<polygon fill="#000000" stroke="#000000" points="4883.3059,-245.5001 4893.3059,-242 4883.3058,-238.5001 4883.3059,-245.5001"/>
</g>
<!-- AdminLandingpageComponent -->
<g id="node51" class="node">
<title>AdminLandingpageComponent</title>
<polygon fill="#ffffb3" stroke="#000000" points="1383.8074,-187 1190.1926,-187 1190.1926,-151 1383.8074,-151 1383.8074,-187"/>
<text text-anchor="middle" x="1287" y="-164.8" font-family="Times,serif" font-size="14.00" fill="#000000">AdminLandingpageComponent</text>
</g>
<!-- AdminLandingpageComponent&#45;&gt;AppModule -->
<g id="edge53" class="edge">
<title>AdminLandingpageComponent&#45;&gt;AppModule</title>
<path fill="none" stroke="#000000" d="M1287,-187.2921C1287,-209.2057 1287,-243 1287,-243 1287,-243 4883.0868,-243 4883.0868,-243"/>
<polygon fill="#000000" stroke="#000000" points="4883.0868,-246.5001 4893.0868,-243 4883.0867,-239.5001 4883.0868,-246.5001"/>
</g>
<!-- InitiaiveListComponent -->
<g id="node52" class="node">
<title>InitiaiveListComponent</title>
<polygon fill="#ffffb3" stroke="#000000" points="1171.7632,-187 1022.2368,-187 1022.2368,-151 1171.7632,-151 1171.7632,-187"/>
<text text-anchor="middle" x="1097" y="-164.8" font-family="Times,serif" font-size="14.00" fill="#000000">InitiaiveListComponent</text>
</g>
<!-- InitiaiveListComponent&#45;&gt;AppModule -->
<g id="edge54" class="edge">
<title>InitiaiveListComponent&#45;&gt;AppModule</title>
<path fill="none" stroke="#000000" d="M1097,-187.1554C1097,-209.3519 1097,-244 1097,-244 1097,-244 4883.2055,-244 4883.2055,-244"/>
<polygon fill="#000000" stroke="#000000" points="4883.2056,-247.5001 4893.2055,-244 4883.2055,-240.5001 4883.2056,-247.5001"/>
</g>
<!-- ImageUploadComponent -->
<g id="node53" class="node">
<title>ImageUploadComponent</title>
<polygon fill="#ffffb3" stroke="#000000" points="1003.5253,-187 846.4747,-187 846.4747,-151 1003.5253,-151 1003.5253,-187"/>
<text text-anchor="middle" x="925" y="-164.8" font-family="Times,serif" font-size="14.00" fill="#000000">ImageUploadComponent</text>
</g>
<!-- ImageUploadComponent&#45;&gt;AppModule -->
<g id="edge55" class="edge">
<title>ImageUploadComponent&#45;&gt;AppModule</title>
<path fill="none" stroke="#000000" d="M925,-187.0109C925,-209.4852 925,-245 925,-245 925,-245 4883.0125,-245 4883.0125,-245"/>
<polygon fill="#000000" stroke="#000000" points="4883.0126,-248.5001 4893.0125,-245 4883.0125,-241.5001 4883.0126,-248.5001"/>
</g>
<!-- WelcomeComponent -->
<g id="node54" class="node">
<title>WelcomeComponent</title>
<polygon fill="#ffffb3" stroke="#000000" points="828.472,-187 693.528,-187 693.528,-151 828.472,-151 828.472,-187"/>
<text text-anchor="middle" x="761" y="-164.8" font-family="Times,serif" font-size="14.00" fill="#000000">WelcomeComponent</text>
</g>
<!-- WelcomeComponent&#45;&gt;AppModule -->
<g id="edge56" class="edge">
<title>WelcomeComponent&#45;&gt;AppModule</title>
<path fill="none" stroke="#000000" d="M761,-187.2479C761,-210.0179 761,-246 761,-246 761,-246 4883.0113,-246 4883.0113,-246"/>
<polygon fill="#000000" stroke="#000000" points="4883.0113,-249.5001 4893.0113,-246 4883.0113,-242.5001 4883.0113,-249.5001"/>
</g>
<!-- RulesComponent -->
<g id="node55" class="node">
<title>RulesComponent</title>
<polygon fill="#ffffb3" stroke="#000000" points="675.719,-187 562.281,-187 562.281,-151 675.719,-151 675.719,-187"/>
<text text-anchor="middle" x="619" y="-164.8" font-family="Times,serif" font-size="14.00" fill="#000000">RulesComponent</text>
</g>
<!-- RulesComponent&#45;&gt;AppModule -->
<g id="edge57" class="edge">
<title>RulesComponent&#45;&gt;AppModule</title>
<path fill="none" stroke="#000000" d="M619,-187.3228C619,-210.6602 619,-248 619,-248 619,-248 4883.3231,-248 4883.3231,-248"/>
<polygon fill="#000000" stroke="#000000" points="4883.3232,-251.5001 4893.3231,-248 4883.3231,-244.5001 4883.3232,-251.5001"/>
</g>
<!-- BackgroundInformationComponent -->
<g id="node56" class="node">
<title>BackgroundInformationComponent</title>
<polygon fill="#ffffb3" stroke="#000000" points="544.1273,-187 327.8727,-187 327.8727,-151 544.1273,-151 544.1273,-187"/>
<text text-anchor="middle" x="436" y="-164.8" font-family="Times,serif" font-size="14.00" fill="#000000">BackgroundInformationComponent</text>
</g>
<!-- BackgroundInformationComponent&#45;&gt;AppModule -->
<g id="edge58" class="edge">
<title>BackgroundInformationComponent&#45;&gt;AppModule</title>
<path fill="none" stroke="#000000" d="M436,-187.1532C436,-210.7566 436,-249 436,-249 436,-249 4883.3345,-249 4883.3345,-249"/>
<polygon fill="#000000" stroke="#000000" points="4883.3345,-252.5001 4893.3345,-249 4883.3345,-245.5001 4883.3345,-252.5001"/>
</g>
<!-- AppComponent  -->
<g id="node60" class="node">
<title>AppComponent </title>
<polygon fill="#80b1d3" stroke="#000000" points="4989.439,-317 4880.561,-317 4880.561,-281 4989.439,-281 4989.439,-317"/>
<text text-anchor="middle" x="4935" y="-294.8" font-family="Times,serif" font-size="14.00" fill="#000000">AppComponent </text>
</g>
<!-- AppModule&#45;&gt;AppComponent  -->
<g id="edge59" class="edge">
<title>AppModule&#45;&gt;AppComponent </title>
<path fill="none" stroke="#000000" stroke-dasharray="1,5" d="M4921.0573,-252.1061C4921.0573,-252.1061 4921.0573,-270.991 4921.0573,-270.991"/>
<polygon fill="#000000" stroke="#000000" points="4917.5574,-270.9909 4921.0573,-280.991 4924.5574,-270.991 4917.5574,-270.9909"/>
</g>
<!-- AppModule&#45;&gt;AppComponent  -->
<g id="edge63" class="edge">
<title>AppModule&#45;&gt;AppComponent </title>
<path fill="none" stroke="#000000" stroke-dasharray="1,5" d="M4948.9427,-252.1061C4948.9427,-252.1061 4948.9427,-270.991 4948.9427,-270.991"/>
<polygon fill="#000000" stroke="#000000" points="4945.4428,-270.9909 4948.9427,-280.991 4952.4428,-270.991 4945.4428,-270.9909"/>
</g>
<!-- OtherUsersService -->
<g id="node58" class="node">
<title>OtherUsersService</title>
<ellipse fill="#fdb462" stroke="#000000" cx="9199" cy="-104" rx="83.9219" ry="18"/>
<text text-anchor="middle" x="9199" y="-99.8" font-family="Times,serif" font-size="14.00" fill="#000000">OtherUsersService</text>
</g>
<!-- OtherUsersService&#45;&gt;AppComponent -->
<g id="edge2" class="edge">
<title>OtherUsersService&#45;&gt;AppComponent</title>
<path fill="none" stroke="#000000" d="M9247.5732,-118.7495C9247.5732,-118.7495 9247.5732,-140.5882 9247.5732,-140.5882"/>
<polygon fill="#000000" stroke="#000000" points="9244.0733,-140.5881 9247.5732,-150.5882 9251.0733,-140.5882 9244.0733,-140.5881"/>
</g>
<!-- ProfileImageService -->
<g id="node59" class="node">
<title>ProfileImageService</title>
<ellipse fill="#fdb462" stroke="#000000" cx="9007" cy="-104" rx="90.3024" ry="18"/>
<text text-anchor="middle" x="9007" y="-99.8" font-family="Times,serif" font-size="14.00" fill="#000000">ProfileImageService</text>
</g>
<!-- ProfileImageService&#45;&gt;AppComponent -->
<g id="edge3" class="edge">
<title>ProfileImageService&#45;&gt;AppComponent</title>
<path fill="none" stroke="#000000" d="M9064.2044,-118.1865C9064.2044,-127.1306 9064.2044,-137 9064.2044,-137 9064.2044,-137 9212.4268,-137 9212.4268,-137 9212.4268,-137 9212.4268,-140.7566 9212.4268,-140.7566"/>
<polygon fill="#000000" stroke="#000000" points="9208.9269,-140.7566 9212.4268,-150.7566 9215.9269,-140.7566 9208.9269,-140.7566"/>
</g>
<!-- SessionService -->
<g id="node61" class="node">
<title>SessionService</title>
<ellipse fill="#fdb462" stroke="#000000" cx="235" cy="-169" rx="69.4974" ry="18"/>
<text text-anchor="middle" x="235" y="-164.8" font-family="Times,serif" font-size="14.00" fill="#000000">SessionService</text>
</g>
<!-- SessionService&#45;&gt;AppModule -->
<g id="edge60" class="edge">
<title>SessionService&#45;&gt;AppModule</title>
<path fill="none" stroke="#000000" d="M235,-187.3802C235,-211.2785 235,-250 235,-250 235,-250 4883.2937,-250 4883.2937,-250"/>
<polygon fill="#000000" stroke="#000000" points="4883.2938,-253.5001 4893.2937,-250 4883.2937,-246.5001 4883.2938,-253.5001"/>
</g>
<!-- ShowService -->
<g id="node62" class="node">
<title>ShowService</title>
<ellipse fill="#fdb462" stroke="#000000" cx="86" cy="-169" rx="61.977" ry="18"/>
<text text-anchor="middle" x="86" y="-164.8" font-family="Times,serif" font-size="14.00" fill="#000000">ShowService</text>
</g>
<!-- ShowService&#45;&gt;AppModule -->
<g id="edge61" class="edge">
<title>ShowService&#45;&gt;AppModule</title>
<path fill="none" stroke="#000000" d="M86,-187.1985C86,-211.3563 86,-251 86,-251 86,-251 4883.0801,-251 4883.0801,-251"/>
<polygon fill="#000000" stroke="#000000" points="4883.0802,-254.5001 4893.0801,-251 4883.0801,-247.5001 4883.0802,-254.5001"/>
</g>
</g>
</svg>
